{
	"id": "53e2525c-1cee-40b3-83f1-5a7808f59648",
	"name": "Social_Network",
	"values": [
		{
			"key": "username",
			"value": "mimi",
			"enabled": true
		},
		{
			"key": "postText",
			"value": "Text caqlu90c5qg",
			"enabled": true
		},
		{
			"key": "postTitle",
			"value": "Title caqlu90c5qg",
			"enabled": true
		},
		{
			"key": "nextFreeID",
			"value": 16,
			"enabled": true
		},
		{
			"key": "randomPostID",
			"value": 14,
			"enabled": true
		},
		{
			"key": "nonExistingPostID",
			"value": 20,
			"enabled": true
		},
		{
			"key": "userID",
			"value": "1",
			"enabled": true
		},
		{
			"key": "userCountry",
			"value": "Japan",
			"enabled": true
		},
		{
			"key": "lastUserUsername",
			"value": "pesho",
			"enabled": true
		},
		{
			"key": "baseURL",
			"value": "http://localhost:8080",
			"enabled": true
		},
		{
			"key": "postStatus",
			"value": "true",
			"enabled": true
		},
		{
			"key": "lastPostID",
			"value": 17,
			"enabled": true
		}
	],
	"_postman_variable_scope": "environment",
	"_postman_exported_at": "2019-10-29T17:06:14.702Z",
	"_postman_exported_using": "Postman/7.10.0"
}