{
	"info": {
		"_postman_id": "7a0071fa-5454-4a60-8774-f080e58ecd93",
		"name": "Social_Network",
		"schema": "https://schema.getpostman.com/json/collection/v2.1.0/collection.json"
	},
	"item": [
		{
			"name": "Posts",
			"item": [
				{
					"name": "Create New Post",
					"event": [
						{
							"listen": "test",
							"script": {
								"id": "b7edf08a-5950-42d1-b769-096411af1912",
								"exec": [
									"pm.test(\"Status code is 200\", function () {",
									"    pm.response.to.have.status(200);",
									"});",
									"",
									"",
									"    let jsonData = pm.response.json();",
									"    let lastPostID = jsonData.id;",
									"    pm.environment.set(\"lastPostID\", lastPostID)",
									"",
									"pm.test(\"Verify response title is as assigned\", function(){",
									"    let jsonData = pm.response.json();",
									"    pm.expect(jsonData.title).to.eql(pm.environment.get(\"postTitle\"));",
									"});",
									"",
									"",
									"pm.test(\"Verify that a Post's body matches string\", function () {",
									"    let jsonData = pm.response.json();",
									"    pm.expect(jsonData.text).to.eql(pm.environment.get(\"postText\"));",
									"});",
									"",
									"pm.test(\"Verify that a Post is linked to a correct User\", function () {",
									"    let jsonData = pm.response.json();",
									"    pm.expect(jsonData.creator.username).to.eql(pm.environment.get(\"username\"));",
									"});",
									"",
									"pm.test(\"Verify that a Post is set to Public status\", function () {",
									"    let jsonData = pm.response.json();",
									"    // The below line converts the env.variable postStatus to a boolean variable \"status\"",
									"    let status = Boolean(pm.environment.get(\"postStatus\"));",
									"    pm.expect(jsonData.creator.enabled).to.eql(status);",
									"});"
								],
								"type": "text/javascript"
							}
						},
						{
							"listen": "prerequest",
							"script": {
								"id": "7061771b-0e89-4577-ab1c-53afdcc2e405",
								"exec": [
									""
								],
								"type": "text/javascript"
							}
						}
					],
					"request": {
						"method": "POST",
						"header": [
							{
								"key": "Content-Type",
								"name": "Content-Type",
								"value": "application/json",
								"type": "text"
							}
						],
						"body": {
							"mode": "raw",
							"raw": "{\r\n  \"createdDate\": \"2019-10-25T08:51:25.305Z\",\r\n  \"creator\": {\r\n    \"age\": 0,\r\n    \"country\": {\r\n      \"country\": \"string\",\r\n      \"id\": 0\r\n    },\r\n    \"email\": \"string\",\r\n    \"enabled\": true,\r\n    \"firstName\": \"string\",\r\n    \"id\": 0,\r\n    \"jobTitle\": \"string\",\r\n    \"lastName\": \"string\",\r\n    \"password\": \"string\",\r\n    \"picture\": \"string\",\r\n    \"username\": \"string\"\r\n  },\r\n  \"id\": 0,\r\n  \"picture\": \"string\",\r\n  \"text\": \"{{postText}}\",\r\n  \"title\": \"{{postTitle}}\"\r\n}",
							"options": {
								"raw": {
									"language": "json"
								}
							}
						},
						"url": {
							"raw": "{{baseURL}}/api/posts",
							"host": [
								"{{baseURL}}"
							],
							"path": [
								"api",
								"posts"
							]
						}
					},
					"response": []
				},
				{
					"name": "Get All Posts",
					"event": [
						{
							"listen": "test",
							"script": {
								"id": "2cbe985d-d977-4451-95ca-29fb4e84ad32",
								"exec": [
									"pm.test(\"Status code is 200\", function () {",
									"    pm.response.to.have.status(200);",
									"});",
									"",
									"",
									"",
									"",
									"",
									""
								],
								"type": "text/javascript"
							}
						}
					],
					"request": {
						"method": "GET",
						"header": [],
						"url": {
							"raw": "{{baseURL}}/api/posts",
							"host": [
								"{{baseURL}}"
							],
							"path": [
								"api",
								"posts"
							]
						}
					},
					"response": []
				},
				{
					"name": "Comment an existing Post",
					"event": [
						{
							"listen": "prerequest",
							"script": {
								"id": "54c95dd8-e7c5-409c-93c8-d783e579dc25",
								"exec": [
									"",
									"// The below script sets env. variable \"randomPostId\" by checking how many IDs are currently in the DB and randomly chooses one",
									"let randomPostID = pm.environment.get(\"lastPostID\") - Math.floor((Math.random() * 10)+1);",
									"if (randomPostID<1){",
									"    randomPostID = 1;",
									"}",
									"",
									"",
									"//The below script gets the username of the randomePostID and sets it as a variable;",
									"let URL = pm.environment.get(\"baseURL\") +\"/api/posts\";",
									"",
									"pm.sendRequest(",
									"    URL , function (err, response) {",
									"    let data = response.json()[randomPostID-1].creator.username;",
									"    pm.variables.set(\"commentsUserUsername\", data)",
									"    console.log(data);",
									"",
									"});",
									"",
									"pm.environment.set(\"randomPostID\", randomPostID);",
									"",
									"",
									"",
									"",
									""
								],
								"type": "text/javascript"
							}
						},
						{
							"listen": "test",
							"script": {
								"id": "64dfd31e-35ac-465e-956e-95e31668b438",
								"exec": [
									"pm.test(\"Status code is 200\", function () {",
									"    pm.response.to.have.status(200);",
									"});",
									"",
									"pm.test(\"Verify comment is linked to a correct Post ID\", function () {",
									"    var jsonData = pm.response.json();",
									"    pm.expect(jsonData.id).to.eql(pm.environment.get(\"randomPostID\"));",
									"});",
									"",
									"pm.test(\"Verify comment is linked to a correct User\", function () {",
									"    var jsonData = pm.response.json();",
									"    pm.expect(jsonData.creator.username).to.eql(pm.variables.get(\"commentsUserUsername\"));",
									"});",
									"",
									"",
									"// The below test checks that the text of the Post to which the comment is related is correct and NOT the text of the actual comment!!!",
									"// Also the verification is pointless as it check one and same thing!",
									"pm.test(\"Verify comment text body is as expected\", function () {",
									"    let text = pm.response.json().text;",
									"    var jsonData = pm.response.json();",
									"    pm.expect(jsonData.text).to.eql(text);",
									"});"
								],
								"type": "text/javascript"
							}
						}
					],
					"request": {
						"method": "POST",
						"header": [
							{
								"key": "Content-Type",
								"name": "Content-Type",
								"value": "application/json",
								"type": "text"
							}
						],
						"body": {
							"mode": "raw",
							"raw": "{\r\n  \"createdDate\": \"2019-10-25T10:01:05.179Z\",\r\n  \"creator\": {\r\n    \"age\": 0,\r\n    \"country\": {\r\n      \"country\": \"string\",\r\n      \"id\": 0\r\n    },\r\n    \"email\": \"string\",\r\n    \"enabled\": true,\r\n    \"firstName\": \"string\",\r\n    \"id\": 0,\r\n    \"jobTitle\": \"string\",\r\n    \"lastName\": \"string\",\r\n    \"password\": \"string\",\r\n    \"picture\": \"string\",\r\n    \"username\": \"string\"\r\n  },\r\n  \"id\": \"0\",\r\n  \"post\": {\r\n    \"createdDate\": \"2019-10-25T10:01:05.179Z\",\r\n    \"creator\": {\r\n      \"age\": 0,\r\n      \"country\": {\r\n        \"country\": \"string\",\r\n        \"id\": 0\r\n      },\r\n      \"email\": \"string\",\r\n      \"enabled\": true,\r\n      \"firstName\": \"string\",\r\n      \"id\": 0,\r\n      \"jobTitle\": \"string\",\r\n      \"lastName\": \"string\",\r\n      \"password\": \"string\",\r\n      \"picture\": \"string\",\r\n      \"username\": \"string\"\r\n    },\r\n    \"id\": \"{{randomPostID}}\",\r\n    \"picture\": \"string\",\r\n    \"text\": \"string\",\r\n    \"title\": \"string\"\r\n  },\r\n  \"text\": \"string\"\r\n}\t",
							"options": {
								"raw": {
									"language": "json"
								}
							}
						},
						"url": {
							"raw": "{{baseURL}}/api/posts/add-comment?postId={{randomPostID}}",
							"host": [
								"{{baseURL}}"
							],
							"path": [
								"api",
								"posts",
								"add-comment"
							],
							"query": [
								{
									"key": "postId",
									"value": "{{randomPostID}}"
								}
							]
						}
					},
					"response": []
				},
				{
					"name": "Comment a non existing Post",
					"event": [
						{
							"listen": "prerequest",
							"script": {
								"id": "2d2c59cc-9df8-41ac-8e2b-82b949d641c3",
								"exec": [
									"let nonExistingPostID = pm.environment.get(\"lastPostID\") + Math.floor((Math.random() * 10)+1) + 1;",
									"pm.environment.set(\"nonExistingPostID\", nonExistingPostID);",
									""
								],
								"type": "text/javascript"
							}
						},
						{
							"listen": "test",
							"script": {
								"id": "ae7a91df-c5ba-4f64-8327-58aed875600c",
								"exec": [
									"pm.test(\"Status code is 409 when Post does not exist\", function () {",
									"    pm.response.to.have.status(409);",
									"});"
								],
								"type": "text/javascript"
							}
						}
					],
					"request": {
						"method": "POST",
						"header": [
							{
								"key": "Content-Type",
								"name": "Content-Type",
								"value": "application/json",
								"type": "text"
							}
						],
						"body": {
							"mode": "raw",
							"raw": "{\r\n  \"createdDate\": \"2019-10-25T10:01:05.179Z\",\r\n  \"creator\": {\r\n    \"age\": 0,\r\n    \"country\": {\r\n      \"country\": \"string\",\r\n      \"id\": 0\r\n    },\r\n    \"email\": \"string\",\r\n    \"enabled\": true,\r\n    \"firstName\": \"string\",\r\n    \"id\": 0,\r\n    \"jobTitle\": \"string\",\r\n    \"lastName\": \"string\",\r\n    \"password\": \"string\",\r\n    \"picture\": \"string\",\r\n    \"username\": \"string\"\r\n  },\r\n  \"id\": 0,\r\n  \"post\": {\r\n    \"createdDate\": \"2019-10-25T10:01:05.179Z\",\r\n    \"creator\": {\r\n      \"age\": 0,\r\n      \"country\": {\r\n        \"country\": \"string\",\r\n        \"id\": 0\r\n      },\r\n      \"email\": \"string\",\r\n      \"enabled\": true,\r\n      \"firstName\": \"string\",\r\n      \"id\": 0,\r\n      \"jobTitle\": \"string\",\r\n      \"lastName\": \"string\",\r\n      \"password\": \"string\",\r\n      \"picture\": \"string\",\r\n      \"username\": \"string\"\r\n    },\r\n    \"id\": 0,\r\n    \"picture\": \"string\",\r\n    \"text\": \"string\",\r\n    \"title\": \"string\"\r\n  },\r\n  \"text\": \"string\"\r\n}",
							"options": {
								"raw": {
									"language": "json"
								}
							}
						},
						"url": {
							"raw": "{{baseURL}}/api/posts/add-comment?postId={{nonExistingPostID}}",
							"host": [
								"{{baseURL}}"
							],
							"path": [
								"api",
								"posts",
								"add-comment"
							],
							"query": [
								{
									"key": "postId",
									"value": "{{nonExistingPostID}}"
								}
							]
						}
					},
					"response": []
				},
				{
					"name": "getPostComments - THIS REQUEST IS STILL NOT WORKING",
					"request": {
						"method": "GET",
						"header": [],
						"url": {
							"raw": "{{baseURL}}/api/posts/comments?postId={{randomPostID}}",
							"host": [
								"{{baseURL}}"
							],
							"path": [
								"api",
								"posts",
								"comments"
							],
							"query": [
								{
									"key": "postId",
									"value": "{{randomPostID}}"
								}
							]
						}
					},
					"response": []
				},
				{
					"name": "Delete Another User's Comment",
					"event": [
						{
							"listen": "test",
							"script": {
								"id": "866fc3ed-24c9-4e4d-ae6a-f627fc60d5b7",
								"exec": [
									"pm.test(\"Status code is 400\", function () {",
									"    pm.response.to.have.status(400);",
									"});",
									"",
									"pm.test(\"Status code name has string\", function () {",
									"    pm.response.to.have.status(\"Bad Request\");",
									"});",
									"",
									"pm.test(\"Body matches string\", function () {",
									"    pm.expect(pm.response.text()).to.include(pm.globals.get(\"messageUnauthDelete\"));",
									"});"
								],
								"type": "text/javascript"
							}
						}
					],
					"request": {
						"method": "DELETE",
						"header": [],
						"body": {
							"mode": "raw",
							"raw": ""
						},
						"url": {
							"raw": "{{baseURL}}/api/posts?postId={{userID}}",
							"host": [
								"{{baseURL}}"
							],
							"path": [
								"api",
								"posts"
							],
							"query": [
								{
									"key": "postId",
									"value": "{{userID}}"
								}
							]
						}
					},
					"response": []
				},
				{
					"name": "Delete Last Post",
					"event": [
						{
							"listen": "test",
							"script": {
								"id": "b32d517c-5f04-4fc3-ba21-ba7e0233a14f",
								"exec": [
									"pm.test(\"Status code is 200\", function () {",
									"    pm.response.to.have.status(200);",
									"});"
								],
								"type": "text/javascript"
							}
						},
						{
							"listen": "prerequest",
							"script": {
								"id": "d7d87df9-5978-4ec5-95c7-a2b81d95d478",
								"exec": [
									""
								],
								"type": "text/javascript"
							}
						}
					],
					"request": {
						"method": "DELETE",
						"header": [],
						"url": {
							"raw": "{{baseURL}}/api/posts?postId={{lastPostID}}",
							"host": [
								"{{baseURL}}"
							],
							"path": [
								"api",
								"posts"
							],
							"query": [
								{
									"key": "postId",
									"value": "{{lastPostID}}"
								}
							]
						}
					},
					"response": []
				},
				{
					"name": "Like an Existing Post",
					"event": [
						{
							"listen": "test",
							"script": {
								"id": "ffa415ee-2b0b-4471-8929-34b3fdd2b54a",
								"exec": [
									"pm.test(\"Status code is 200\", function () {",
									"    pm.response.to.have.status(200);",
									"});"
								],
								"type": "text/javascript"
							}
						}
					],
					"request": {
						"method": "PUT",
						"header": [],
						"url": {
							"raw": "{{baseURL}}/api/posts/like?postId={{postInUseID}}",
							"host": [
								"{{baseURL}}"
							],
							"path": [
								"api",
								"posts",
								"like"
							],
							"query": [
								{
									"key": "postId",
									"value": "{{postInUseID}}"
								}
							]
						}
					},
					"response": []
				},
				{
					"name": "Like Already Liked Post",
					"event": [
						{
							"listen": "test",
							"script": {
								"id": "ecec6cab-69a6-40b2-b89f-fbc3122ee669",
								"exec": [
									"pm.test(\"Status code is 400\", function () {",
									"    pm.response.to.have.status(400);",
									"});",
									"",
									"pm.test(\"Status code name has string\", function () {",
									"    pm.response.to.have.status(\"Bad Request\");",
									"});",
									"",
									"pm.test(\"Body matches string\", function () {",
									"    pm.expect(pm.response.text()).to.include(pm.globals.get(\"messageUnauthLike\"));",
									"});"
								],
								"type": "text/javascript"
							}
						}
					],
					"request": {
						"method": "PUT",
						"header": [],
						"url": {
							"raw": "{{baseURL}}/api/posts/like?postId={{postInUseID}}",
							"host": [
								"{{baseURL}}"
							],
							"path": [
								"api",
								"posts",
								"like"
							],
							"query": [
								{
									"key": "postId",
									"value": "{{postInUseID}}"
								}
							]
						}
					},
					"response": []
				},
				{
					"name": "Unlike Already Liked Post",
					"event": [
						{
							"listen": "test",
							"script": {
								"id": "bb8b35e7-81c2-4cdc-b523-c4d24e596cbb",
								"exec": [
									"pm.test(\"Status code is 200\", function () {",
									"    pm.response.to.have.status(200);",
									"});"
								],
								"type": "text/javascript"
							}
						}
					],
					"request": {
						"method": "PUT",
						"header": [],
						"url": {
							"raw": "{{baseURL}}/api/posts/dislike?postId={{postInUseID}}",
							"host": [
								"{{baseURL}}"
							],
							"path": [
								"api",
								"posts",
								"dislike"
							],
							"query": [
								{
									"key": "postId",
									"value": "{{postInUseID}}"
								}
							]
						}
					},
					"response": []
				}
			],
			"protocolProfileBehavior": {}
		},
		{
			"name": "Users",
			"item": [
				{
					"name": "getAllUsers",
					"event": [
						{
							"listen": "test",
							"script": {
								"id": "74396d37-96c0-4b36-ada0-6872ef311ee8",
								"exec": [
									"pm.test(\"Status code is 200\", function () {",
									"    pm.response.to.have.status(200);",
									"});",
									"",
									"",
									"pm.test(\"Verify request returns correct id for user with ID 1\", function () {",
									"    var jsonData = pm.response.json();",
									"    let userIDe = pm.environment.get(\"userID\")*1;",
									"    pm.expect(jsonData[0].id).to.eql(userIDe);",
									"    console.log(jsonData.length);",
									"});",
									"",
									"pm.test(\"Verify request returns correct country for user with ID 1\", function () {",
									"    var jsonData = pm.response.json();",
									"    pm.expect(jsonData[0].country.country).to.eql(pm.environment.get(\"userCountry\"));",
									"});",
									"",
									"pm.test(\"Verify request returns correct username for the last user\", function () {",
									"    var jsonData = pm.response.json();",
									"    let lastUser = jsonData.length;",
									"    pm.expect(jsonData[lastUser-1].username).to.eql(pm.environment.get(\"lastUserUsername\"));",
									"",
									"});",
									"",
									""
								],
								"type": "text/javascript"
							}
						}
					],
					"request": {
						"method": "GET",
						"header": [],
						"url": {
							"raw": "{{baseURL}}/api/users",
							"host": [
								"{{baseURL}}"
							],
							"path": [
								"api",
								"users"
							]
						}
					},
					"response": []
				}
			],
			"protocolProfileBehavior": {}
		}
	],
	"auth": {
		"type": "basic",
		"basic": [
			{
				"key": "password",
				"value": "Lufthansa1[{",
				"type": "string"
			},
			{
				"key": "username",
				"value": "jekozo",
				"type": "string"
			}
		]
	},
	"event": [
		{
			"listen": "prerequest",
			"script": {
				"id": "18c8210a-dcaa-4cae-a835-97baeb16a064",
				"type": "text/javascript",
				"exec": [
					"",
					"let random = Math.random().toString(32).substring(2);",
					"",
					"let postTitle = \"Title \"+random;",
					"pm.environment.set(\"postTitle\", postTitle);",
					"",
					"let postText = \"Text \"+random;",
					"pm.environment.set(\"postText\", postText);"
				]
			}
		},
		{
			"listen": "test",
			"script": {
				"id": "bed6d1bc-69bc-45e9-9f44-716af4c57e66",
				"type": "text/javascript",
				"exec": [
					""
				]
			}
		}
	],
	"protocolProfileBehavior": {}
}