C:\Users\iva\Desktop\alpha-qa-2019-homework\TestFrameWork\src\test\java\testCases\BaseTest.java
C:\Users\iva\Desktop\alpha-qa-2019-homework\TestFrameWork\src\test\java\testCases\TC0022_0023_ConfirmAbandonAndKeenButtonsWork.java
C:\Users\iva\Desktop\alpha-qa-2019-homework\TestFrameWork\src\test\java\testCases\TC0024_ConfirmEscXButtonWorks.java
C:\Users\iva\Desktop\alpha-qa-2019-homework\TestFrameWork\src\test\java\testCases\TC001_CreateNewTopic.java
C:\Users\iva\Desktop\alpha-qa-2019-homework\TestFrameWork\src\test\java\testCases\TC012_NewTopicWithHundredChars.java
C:\Users\iva\Desktop\alpha-qa-2019-homework\TestFrameWork\src\test\java\testCases\TC3_CreateTopicAsNotRegisteredUser.java
C:\Users\iva\Desktop\alpha-qa-2019-homework\TestFrameWork\src\test\java\testCases\TC0025_ChangeTopicName.java
